 [
  {
  "ID": "",
  "title": "",
  "status": "",
  "type": "otw-portfolio",
  "content": "",
  "parent": "",
  "link": "",
  "date": "",
  "modified": "",
  "format": "",
  "slug": "",
  "guid": "",
  "excerpt": "",
  "menu_order": 0,
  "comment_status": "",
  "ping_status": "",
  "sticky": "",
  "date_tz": "",
  "date_gmt": "",
  "modified_tz": "",
  "modified_gmt": "",
  "featured_image": {
  "ID": "",
  "title": "",
  "status": "",
  "type": "",
  "author": {
  "ID": "",
  "username": "",
  "name": "",
  "first_name": "",
  "last_name": "",
  "nickname": "",
  "slug": "",
  "URL": "",
  "avatar": "",
  "description": "",
  "registered": "",
  "meta": {
  "links": {
  "self": "",
  "archives": ""
  }
  }
  },
  "content": "",
  "parent": "",
  "link": "",
  "date": "",
  "modified": "",
  "format": "",
  "slug": "",
  "guid": "",
  "excerpt": "",
  "menu_order": "",
  "comment_status": "",
  "ping_status": "",
  "sticky": "",
  "date_tz": "",
  "date_gmt": "",
  "modified_tz": "",
  "modified_gmt": "",
  "meta": {
  "links": {
  "self": "",
  "author": "",
  "collection": "",
  "replies": "",
  "version-history": "",
  "up": ""
  }
  },
  "terms": [],
  "source": "",
  "is_image": ""
  },
  "terms": {
  "otw-portfolio-category": [
                             {
                             "ID": "",
                             "name": "",
                             "slug": "",
                             "description": "",
                             "parent": "",
                             "count": "",
                             "link": "",
                             "meta": {
                             "links": {
                             "collection": "",
                             "self": ""
                             }
                             }
                             }
                             ]
  }
  }
  ]
